<?xml version="1.0" encoding="utf-8"?>
<!-- Generator: Adobe Illustrator 21.0.0, SVG Export Plug-In . SVG Version: 6.00 Build 0)  -->
<svg version="1.1" id="logo-tokenify" xmlns="http://www.w3.org/2000/svg" xmlns:xlink="http://www.w3.org/1999/xlink" x="0px"
	 y="0px" viewBox="0 0 196 145.2" style="enable-background:new 0 0 196 145.2;" xml:space="preserve">
<style type="text/css">
	.st0{fill:none;enable-background:new    ;}
	.st1{fill:#FF9C00;}
</style>
<path class="st0" d="z"/>
<g>
	<path class="st1" d="M135.8,52c-5.5,0-10.5,2.2-14.3,5.7c-0.7,0.6-1.3,1.4-1.9,2c-5.6,6.2-14.4,10.1-21.4,10.1
		c-7.1,0-15.8-3.9-21.4-10.1c-0.6-0.7-1.2-1.4-1.9-2c-3.7-3.5-8.7-5.7-14.3-5.7C49.3,52,40,61.3,40,72.7c0,11.4,9.3,20.7,20.7,20.7
		c5.4,0,10.3-2.1,14-5.4c1.2-1.1,2.1-2.4,3.2-3.7c5.1-6.2,13.6-9.7,20.4-9.7c6.8,0,15.3,3.5,20.4,9.7c1,1.3,2,2.6,3.2,3.7
		c3.7,3.4,8.6,5.4,14,5.4c11.4,0,20.7-9.3,20.7-20.7C156.4,61.3,147.2,52,135.8,52z"/>
	<circle class="st1" cx="98.2" cy="121.1" r="21.1"/>
	<path class="st1" d="M173.3,4c-5.5,0-10.5,2.2-14.3,5.7c-0.7,0.6-1.3,1.4-1.9,2c-5.6,6.2-14.4,10.1-21.4,10.1
		c-7.1,0-15.8-3.9-21.4-10.1c0,0,0,0,0,0c-0.5-0.7-1.1-1.3-1.7-1.9c0,0-0.1-0.1-0.1-0.1c0,0-0.1-0.1-0.1-0.1
		c-0.1-0.1-0.3-0.3-0.4-0.4c-0.1-0.1-0.2-0.2-0.3-0.2c-0.2-0.1-0.3-0.3-0.5-0.4c-0.1-0.1-0.2-0.2-0.3-0.2c-0.2-0.1-0.3-0.2-0.5-0.4
		c-0.1-0.1-0.2-0.2-0.3-0.2c-0.2-0.1-0.3-0.2-0.5-0.3c-0.1-0.1-0.2-0.1-0.3-0.2c-0.2-0.1-0.3-0.2-0.5-0.3c-0.1-0.1-0.2-0.1-0.4-0.2
		c-0.2-0.1-0.3-0.2-0.5-0.3c-0.1-0.1-0.3-0.1-0.4-0.2c-0.2-0.1-0.3-0.2-0.5-0.2c-0.1-0.1-0.3-0.1-0.4-0.2c-0.2-0.1-0.3-0.1-0.5-0.2
		c-0.1-0.1-0.3-0.1-0.4-0.2c-0.2-0.1-0.3-0.1-0.5-0.2c-0.2-0.1-0.3-0.1-0.5-0.2c-0.2-0.1-0.3-0.1-0.5-0.2c-0.2,0-0.3-0.1-0.5-0.1
		c-0.2,0-0.3-0.1-0.5-0.1c-0.2,0-0.4-0.1-0.5-0.1c-0.1,0-0.3-0.1-0.4-0.1c-0.2,0-0.4-0.1-0.6-0.1c-0.1,0-0.3,0-0.4-0.1
		c-0.2,0-0.5-0.1-0.7-0.1c-0.1,0-0.2,0-0.3,0c-0.3,0-0.6-0.1-0.9-0.1c0,0-0.1,0-0.1,0c-0.4,0-0.7,0-1.1,0c-0.3,0-0.6,0-0.9,0
		c0,0-0.1,0-0.1,0c-0.2,0-0.4,0-0.6,0c-0.1,0-0.3,0-0.4,0c-0.2,0-0.4,0-0.6,0.1c-0.1,0-0.3,0-0.4,0.1c-0.2,0-0.4,0.1-0.6,0.1
		c-0.1,0-0.3,0-0.4,0.1c-0.2,0-0.4,0.1-0.6,0.1c-0.1,0-0.3,0.1-0.4,0.1c-0.2,0-0.4,0.1-0.6,0.2c-0.1,0-0.3,0.1-0.4,0.1
		C92,5,91.8,5.1,91.6,5.1c-0.1,0-0.2,0.1-0.4,0.1c-0.2,0.1-0.4,0.1-0.6,0.2c-0.1,0-0.2,0.1-0.3,0.1c-0.2,0.1-0.4,0.2-0.6,0.2
		c-0.1,0-0.2,0.1-0.3,0.1c-0.2,0.1-0.4,0.2-0.6,0.3c-0.1,0.1-0.2,0.1-0.3,0.2c-0.2,0.1-0.4,0.2-0.6,0.3c-0.1,0.1-0.2,0.1-0.3,0.2
		c-0.2,0.1-0.4,0.2-0.6,0.3c-0.1,0.1-0.2,0.1-0.3,0.2c-0.2,0.1-0.4,0.2-0.5,0.4c-0.1,0.1-0.2,0.1-0.3,0.2c-0.2,0.1-0.4,0.3-0.5,0.4
		c-0.1,0.1-0.2,0.1-0.2,0.2C85.2,8.7,85,8.9,84.8,9c-0.1,0.1-0.2,0.1-0.2,0.2c-0.2,0.1-0.3,0.3-0.5,0.4c0,0-0.1,0.1-0.1,0.1
		c0,0-0.1,0.1-0.1,0.1c-0.6,0.6-1.2,1.2-1.7,1.9c0,0,0,0,0,0C76.5,18,67.8,21.9,60.7,21.9c-7.1,0-15.8-3.9-21.4-10.1
		c-0.6-0.7-1.2-1.4-1.9-2C33.7,6.2,28.7,4,23.2,4C11.7,4,2.5,13.3,2.5,24.7c0,11.4,9.3,20.7,20.7,20.7c5.4,0,10.3-2.1,14-5.4
		c1.2-1.1,2.1-2.4,3.2-3.7c5.1-6.2,13.6-9.7,20.4-9.7c6.8,0,15.3,3.4,20.4,9.6c0.9,1.3,2,2.6,3.1,3.6c0,0,0,0,0,0c0,0,0,0,0,0
		c0.2,0.2,0.4,0.3,0.5,0.5c0.1,0.1,0.1,0.1,0.2,0.2c0.2,0.1,0.3,0.3,0.5,0.4c0.1,0.1,0.2,0.1,0.3,0.2c0.2,0.1,0.3,0.2,0.5,0.4
		c0.1,0.1,0.2,0.1,0.3,0.2c0.2,0.1,0.3,0.2,0.5,0.3c0.1,0.1,0.2,0.1,0.3,0.2c0.2,0.1,0.3,0.2,0.5,0.3c0.1,0.1,0.2,0.1,0.4,0.2
		c0.2,0.1,0.3,0.2,0.5,0.3c0.1,0.1,0.3,0.1,0.4,0.2c0.2,0.1,0.3,0.2,0.5,0.2c0.1,0.1,0.3,0.1,0.4,0.2c0.2,0.1,0.3,0.1,0.5,0.2
		c0.1,0.1,0.3,0.1,0.4,0.2c0.2,0.1,0.3,0.1,0.5,0.2c0.2,0.1,0.3,0.1,0.5,0.2c0.2,0.1,0.3,0.1,0.5,0.1c0.2,0,0.3,0.1,0.5,0.1
		c0.2,0,0.3,0.1,0.5,0.1c0.2,0,0.3,0.1,0.5,0.1c0.2,0,0.3,0.1,0.5,0.1c0.2,0,0.4,0.1,0.6,0.1c0.1,0,0.3,0.1,0.4,0.1
		c0.2,0,0.4,0.1,0.6,0.1c0.1,0,0.3,0,0.4,0c0.2,0,0.4,0,0.7,0.1c0.1,0,0.2,0,0.4,0c0.3,0,0.7,0,1,0c0,0,0,0,0,0l0,0l0,0c0,0,0,0,0,0
		c0.3,0,0.7,0,1,0c0.1,0,0.2,0,0.3,0c0.2,0,0.5,0,0.7-0.1c0.1,0,0.3,0,0.4,0c0.2,0,0.4,0,0.6-0.1c0.1,0,0.3,0,0.4-0.1
		c0.2,0,0.4-0.1,0.6-0.1c0.2,0,0.3-0.1,0.4-0.1c0.2,0,0.3-0.1,0.5-0.1c0.2,0,0.3-0.1,0.5-0.1c0.2,0,0.3-0.1,0.5-0.1
		c0.2,0,0.3-0.1,0.5-0.1c0.2-0.1,0.3-0.1,0.5-0.2c0.2-0.1,0.3-0.1,0.5-0.2c0.1-0.1,0.3-0.1,0.4-0.2c0.2-0.1,0.3-0.1,0.5-0.2
		c0.1-0.1,0.3-0.1,0.4-0.2c0.2-0.1,0.3-0.2,0.5-0.2c0.1-0.1,0.3-0.1,0.4-0.2c0.2-0.1,0.3-0.2,0.5-0.3c0.1-0.1,0.2-0.1,0.3-0.2
		c0.2-0.1,0.3-0.2,0.5-0.3c0.1-0.1,0.2-0.1,0.3-0.2c0.2-0.1,0.3-0.2,0.5-0.3c0.1-0.1,0.2-0.1,0.3-0.2c0.2-0.1,0.3-0.2,0.5-0.4
		c0.1-0.1,0.2-0.1,0.2-0.2c0.2-0.1,0.3-0.3,0.5-0.4c0.1-0.1,0.1-0.1,0.2-0.2c0.2-0.2,0.4-0.3,0.5-0.5c0,0,0,0,0,0c0,0,0,0,0,0
		c1.2-1.1,2.2-2.3,3.1-3.6c5.1-6.2,13.6-9.7,20.4-9.7c6.8,0,15.3,3.5,20.4,9.7c1,1.3,2,2.6,3.2,3.7c3.7,3.4,8.6,5.4,14,5.4
		c11.4,0,20.7-9.3,20.7-20.7C194,13.3,184.7,4,173.3,4z"/>
</g>
</svg>
